…
``` r
instacart|> 
  count(user_id)
```

    ## # A tibble: 131,209 × 2
    ##    user_id     n
    ##      <int> <int>
    ##  1       1    11
    ##  2       2    31
    ##  3       5     9
    ##  4       7     9
    ##  5       8    18
    ##  6       9    22
    ##  7      10     4
    ##  8      13     5
    ##  9      14    11
    ## 10      17     6
    ## # ℹ 131,199 more rows

> > This data has 1384617 observeations. Including 15 variables order
> > id, user id,product d, aisle id departmen id, aisle, department
> > order number, days since prior order, order time, product name and
> > if it is reordered. There are 131209 unique user id in the data.

``` r
instacart|>
  count(aisle,name="n_items")|>
  arrange(desc(n_items))
```

    ## # A tibble: 134 × 2
    ##    aisle                         n_items
    ##    <chr>                           <int>
    ##  1 fresh vegetables               150609
    ##  2 fresh fruits                   150473
    ##  3 packaged vegetables fruits      78493
    ##  4 yogurt                          55240
    ##  5 packaged cheese                 41699
    ##  6 water seltzer sparkling water   36617
    ##  7 milk                            32644
    ##  8 chips pretzels                  31269
    ##  9 soy lactosefree                 26240
    ## 10 bread                           23635
    ## # ℹ 124 more rows
…
``` r
brfss_smart_df=brfss_smart2010|>
  janitor::clean_names()|>
  rename(states_abbrev=locationabbr,
         states_county=locationdesc,
         responde_id=respid)|>
  filter(topic=="Overall Health")|>
  mutate(response=factor(response,
                         levels=c("Poor","Fair","Good","Very good","Excellent")))

brfss_smart_df
```

    ## # A tibble: 10,625 × 23
    ##     year states_abbrev states_county   class topic question response sample_size
    ##    <int> <chr>         <chr>           <chr> <chr> <chr>    <fct>          <int>
    ##  1  2010 AL            AL - Jefferson… Heal… Over… How is … Excelle…          94
    ##  2  2010 AL            AL - Jefferson… Heal… Over… How is … Very go…         148
    ##  3  2010 AL            AL - Jefferson… Heal… Over… How is … Good             208
    ##  4  2010 AL            AL - Jefferson… Heal… Over… How is … Fair             107
    ##  5  2010 AL            AL - Jefferson… Heal… Over… How is … Poor              45
    ##  6  2010 AL            AL - Mobile Co… Heal… Over… How is … Excelle…          91
    ##  7  2010 AL            AL - Mobile Co… Heal… Over… How is … Very go…         177
    ##  8  2010 AL            AL - Mobile Co… Heal… Over… How is … Good             224
    ##  9  2010 AL            AL - Mobile Co… Heal… Over… How is … Fair             120
    ## 10  2010 AL            AL - Mobile Co… Heal… Over… How is … Poor              66
    ## # ℹ 10,615 more rows
    ## # ℹ 15 more variables: data_value <dbl>, confidence_limit_low <dbl>,
    ## #   confidence_limit_high <dbl>, display_order <int>, data_value_unit <chr>,
    ## #   data_value_type <chr>, data_value_footnote_symbol <chr>,
    ## #   data_value_footnote <chr>, data_source <chr>, class_id <chr>,
    ## #   topic_id <chr>, location_id <chr>, question_id <chr>, responde_id <chr>,
    ## #   geo_location <chr>
…
``` r
covar=covar|>
  drop_na()|>
  filter(age>=21)|>
  mutate(education=factor(education,labels=c("Less than High School", "High School", "More than High School")),
         sex=factor(sex,labels=c("male","female")))
covar
```

    ## # A tibble: 228 × 5
    ##     SEQN sex      age   BMI education            
    ##    <dbl> <fct>  <dbl> <dbl> <fct>                
    ##  1 62161 male      22  23.3 High School          
    ##  2 62164 female    44  23.2 More than High School
    ##  3 62169 male      21  20.1 High School          
    ##  4 62174 male      80  33.9 More than High School
    ##  5 62177 male      51  20.1 High School          
    ##  6 62178 male      80  28.5 High School          
    ##  7 62180 male      35  27.9 More than High School
    ##  8 62184 male      26  22.1 High School          
    ##  9 62189 female    30  22.4 More than High School
    ## 10 62199 male      57  28   More than High School
    ## # ℹ 218 more rows
…
